<?xml version="1.0" encoding="utf-8"?>
<!-- Generator: Adobe Illustrator 19.0.0, SVG Export Plug-In . SVG Version: 6.00 Build 0)  -->
<svg version="1.1" id="Calque_1" xmlns="http://www.w3.org/2000/svg" xmlns:xlink="http://www.w3.org/1999/xlink" x="0px" y="0px"
	 viewBox="0 253.8 841.9 103.5" style="enable-background:new 0 253.8 841.9 103.5;" xml:space="preserve">
<style type="text/css">
	.cloud0{fill:#F7FCFF;}
	.cloud1{fill:#F1F9FE;}
	.cloud2{fill:#fdfdfd;}
</style>
<path class="cloud0" d="M0,296.4c0,0,190.3-38.1,299.7-38.1c101.5,0,143.6,26.8,209,26.1c98.9-1.1,179.1-19.3,259-19.3
	c46.2,0,74.1,17.6,74.1,17.6v74.6H0V296.4z"/>
<path class="cloud1" d="M365.3,326.8c0,0,194.3-33,295.7-33s180.9,42,180.9,42v21.4H280.5L365.3,326.8z"/>
<path class="cloud2" d="M0,341.5c0,0,90.2-44.6,178.7-44.6c111,0,256.9,33.6,379.9,33.6s283.3-17.1,283.3-17.1v43.9H0V341.5z"/>
</svg>
